;;;Barri d'alta;;;;;;;;;;;;;;;;;;;;;;;;;;;;;;;;;;;;;;;;;;;;;;;;;;;;;;;;;;;;;;;;;;;;;;;;;;;;
;;;;;;;;;;;;;;;;;;;;;;;;;;;;;;;;;;;;;;;;;;;;;;;;;;;;;;;;;;;;;;;;;;;;;;;;;;;;;;;
1;1. el Raval;6.475;3.098;193;87;166;80;54;73;81;103;253;631;2;64;32;39;29;60;78;64;13;4;8;11;1;15;31;52;19;7;7;132;45;38;12;43;8;16;13;8;5;6;1;48;17;27;29;0;7;1;24;12;24;12;0;28;2;48;0;4;42;20;33;34;53;31;17;8;65;13;95;18;37;25;19;;;
1;2. el Barri Gòtic;3.785;496;288;83;163;59;112;106;73;113;84;152;0;45;35;74;38;61;116;49;38;11;5;25;18;27;42;32;21;5;13;122;42;48;11;70;6;76;18;4;9;3;0;37;44;32;63;1;22;6;31;30;21;12;10;34;3;23;3;32;72;40;27;26;71;45;37;12;68;4;73;30;48;30;5;;;
1;3. la Barceloneta;1.250;75;36;505;47;19;18;28;20;14;18;49;0;3;5;5;6;7;19;8;4;0;1;0;2;5;10;13;6;2;9;24;11;3;6;12;1;5;4;4;1;0;0;9;7;10;2;0;2;2;8;6;4;7;1;7;1;1;4;6;18;5;5;1;18;13;4;12;30;7;31;11;7;5;1;;;
1;4. Sant Pere, Santa Caterina i la Ribera;2.047;198;106;60;433;62;49;101;42;68;55;83;0;13;5;31;4;13;32;24;7;3;3;12;5;14;18;15;8;1;9;86;22;10;7;22;2;23;2;3;4;0;0;14;7;13;9;1;3;1;12;5;17;10;2;12;0;9;8;6;25;2;7;19;22;22;35;14;43;22;24;4;9;13;2;;;
2;5. el Fort Pienc;1.782;47;17;16;47;356;109;133;59;46;44;43;0;5;3;10;14;14;31;13;14;18;2;7;4;8;32;16;5;7;8;45;45;18;7;20;4;18;6;4;2;4;1;12;8;10;4;0;5;4;12;1;16;4;0;2;5;8;5;1;29;38;4;31;46;29;47;16;33;10;32;19;26;22;1;;;
2;6. la Sagrada Família;2.716;67;23;20;26;120;624;102;49;66;43;40;1;11;12;10;11;25;38;27;3;3;14;6;5;33;32;36;10;10;16;89;105;116;12;66;7;16;5;3;4;7;0;37;34;23;23;2;13;0;10;7;16;10;2;12;2;6;2;17;38;38;21;38;165;51;25;10;76;13;21;27;40;22;2;;;
2;7. la Dreta de l'Eixample;2.424;80;41;24;79;149;116;514;109;53;37;42;0;8;10;10;8;16;55;54;19;12;11;32;17;20;90;45;19;6;23;116;98;34;11;41;7;17;3;2;5;1;0;20;16;9;9;0;2;1;4;10;8;3;0;3;4;3;0;5;36;10;12;20;50;23;22;20;34;12;9;18;19;5;3;;;
2;8. l'Antiga Esquerra de l'Eixample;2.245;86;35;25;47;36;78;121;439;216;68;61;0;22;9;26;16;16;51;70;7;17;8;48;27;37;114;36;20;5;11;83;34;21;5;26;3;13;3;1;0;6;0;18;5;4;3;0;3;3;11;3;11;8;0;3;0;6;2;5;20;12;8;13;37;25;13;10;34;9;6;12;6;6;2;;;
2;9. la Nova Esquerra de l'Eixample;2.830;95;28;23;21;39;87;55;189;678;161;94;1;43;24;52;37;31;133;106;39;9;7;38;13;23;75;58;12;1;9;83;29;39;6;36;8;12;11;9;8;2;0;18;24;29;14;0;4;4;4;7;15;0;0;10;1;4;0;12;27;27;11;20;37;23;7;4;28;20;15;15;12;14;0;;;
2;10. Sant Antoni;1.971;163;32;28;26;26;44;58;61;121;421;213;2;28;22;30;25;12;63;36;11;5;4;13;5;21;37;21;5;3;4;62;41;10;5;17;1;10;0;11;3;2;0;3;14;15;8;0;6;0;2;0;6;2;0;6;0;7;1;2;24;15;10;23;25;21;6;4;26;4;11;7;15;4;2;;;
3;11. el Poble Sec - Parc Montjuïc;2.967;401;62;33;53;23;45;63;62;98;190;964;0;55;30;47;29;33;58;42;7;0;3;9;5;8;23;25;13;1;10;55;24;9;5;27;7;10;3;3;3;12;0;17;13;7;24;0;2;7;13;12;23;7;2;17;1;11;3;4;35;16;7;8;29;22;7;6;26;3;48;7;23;10;7;;;
3;12. la Marina del Prat Vermell - Zona Franca;27;1;0;0;1;0;0;0;0;0;0;0;8;4;0;1;1;0;0;1;0;0;0;0;1;0;0;0;0;3;0;0;0;0;0;0;0;0;0;0;0;0;0;0;0;0;0;0;0;0;0;0;1;0;0;0;0;0;0;0;0;0;0;0;1;0;0;0;0;0;1;3;0;0;0;;;
3;13. la Marina de Port;1.401;45;10;6;11;22;13;5;13;19;17;45;10;785;26;18;27;13;40;19;10;4;1;5;3;4;9;6;3;4;3;7;14;16;4;14;4;4;1;0;2;0;0;4;9;5;0;0;1;1;8;3;4;1;0;2;5;7;0;4;10;5;2;4;12;4;7;0;5;2;10;4;13;5;2;;;
3;14. la Font de la Guatlla;604;17;8;4;7;5;12;5;15;22;30;26;6;38;104;58;18;10;36;11;3;0;1;4;2;0;9;5;1;5;2;20;4;9;0;3;0;9;3;4;2;0;0;8;2;5;11;0;0;0;2;2;4;0;0;3;0;0;1;1;4;4;0;1;3;11;0;1;3;1;5;2;10;2;0;;;
3;15. Hostafrancs;944;28;12;3;15;18;23;11;14;41;24;43;0;41;46;259;56;13;87;10;7;4;2;1;0;2;6;5;2;2;0;22;10;4;1;11;0;7;2;1;3;3;0;3;8;6;2;0;0;0;1;3;5;0;0;2;1;5;0;0;8;14;2;1;5;3;4;3;8;4;9;5;2;0;1;;;
3;16. la Bordeta;776;21;4;6;2;14;11;9;3;24;10;18;1;37;27;38;181;27;117;22;14;1;1;5;3;0;7;5;7;0;0;17;1;6;0;11;1;6;2;0;4;3;0;2;4;9;3;0;1;0;6;7;2;1;1;7;0;2;2;1;9;3;6;1;9;8;2;0;2;0;2;4;10;4;2;;;
3;17. Sants - Badal;1.048;32;13;4;9;21;19;16;21;41;14;25;0;28;15;18;46;252;137;53;69;2;0;12;2;11;4;5;8;1;1;12;7;7;7;8;3;2;5;0;1;1;0;2;7;6;4;0;0;0;3;1;4;4;0;3;0;0;1;1;4;14;1;4;14;13;1;1;9;0;8;1;6;2;2;;;
3;18. Sants;2.254;71;30;15;21;22;41;31;45;104;49;48;0;50;22;96;132;141;587;145;67;2;3;16;10;6;20;17;8;2;8;36;20;23;8;16;5;12;4;4;6;2;0;4;8;12;11;3;9;0;5;9;14;1;1;8;6;11;1;12;21;14;13;16;24;19;8;2;12;7;16;13;14;10;5;;;
4;19. les Corts;1.766;36;13;10;13;24;36;43;55;99;24;36;1;14;7;23;23;33;179;461;60;19;4;39;32;32;64;25;5;0;7;57;20;22;6;11;2;14;2;3;2;3;0;12;8;0;10;1;6;0;3;0;13;1;0;7;2;5;0;5;11;8;5;7;20;7;5;9;14;9;14;7;7;10;1;;;
4;20. la Maternitat i Sant Ramon;930;13;3;4;8;9;19;22;18;31;13;10;0;10;4;7;14;88;73;80;230;18;8;24;6;17;29;8;4;3;3;21;9;4;2;9;0;4;0;1;2;3;0;0;2;1;3;0;4;2;2;2;6;0;0;3;0;0;0;3;7;5;0;3;17;9;2;1;11;1;5;1;7;2;0;;;
4;21. Pedralbes;432;7;4;3;6;3;6;10;11;5;2;3;0;3;4;1;2;3;16;26;16;80;6;65;19;13;35;21;7;3;3;10;5;1;2;2;0;0;1;0;1;1;0;2;1;1;0;0;1;0;0;0;2;1;0;0;0;2;0;0;2;0;2;2;1;1;0;2;3;2;0;0;0;1;0;;;
5;22. Vallvidrera, el Tibidabo i les Planes;170;9;1;1;4;4;6;1;2;4;3;3;0;0;0;2;0;0;2;2;0;0;63;14;7;2;8;2;2;1;0;7;1;2;1;1;0;0;0;0;0;0;0;0;0;0;0;0;0;0;0;0;0;0;0;0;0;1;0;0;3;0;0;0;7;0;0;0;0;0;2;0;1;0;1;;;
5;23. Sarrià;1.027;25;10;4;9;4;7;31;36;17;5;8;0;6;2;4;0;7;16;48;18;29;28;308;67;50;81;30;6;1;6;43;10;9;1;10;1;2;4;2;3;4;0;5;3;3;2;0;0;0;4;1;0;3;0;1;0;5;2;1;4;4;1;5;6;3;2;4;4;2;1;3;2;2;2;;;
5;24. les Tres Torres;598;8;2;0;7;7;18;17;14;22;4;7;0;8;0;1;6;0;8;36;2;19;6;67;107;43;75;23;10;1;3;19;5;2;3;6;2;0;1;3;0;2;0;2;1;0;1;0;0;0;3;3;1;0;0;1;0;0;0;0;0;1;0;4;3;4;1;1;3;1;2;1;1;0;0;;;
5;25. Sant Gervasi - la Bonanova;1.009;16;12;3;11;5;16;32;37;30;11;10;2;2;1;5;6;6;8;45;15;21;17;62;56;189;96;71;23;26;3;36;11;5;6;8;0;5;4;0;0;7;0;3;3;4;2;0;2;0;1;6;2;0;0;2;0;2;0;0;4;1;9;2;8;6;3;3;11;4;9;1;0;2;0;;;
5;26. Sant Gervasi - Galvany;2.130;33;19;10;22;17;49;58;84;86;23;25;0;5;2;7;6;9;37;69;19;32;18;106;87;164;568;129;23;10;25;93;32;25;7;25;2;13;7;3;3;3;0;9;9;2;4;0;9;0;5;3;7;0;0;0;0;3;1;4;12;11;6;5;18;14;15;4;5;13;2;9;3;1;1;;;
5;27. el Putxet i el Farró;1.536;38;12;10;16;18;40;57;40;27;17;26;0;12;4;4;8;15;21;28;8;23;20;48;19;145;118;248;57;22;35;101;30;23;5;26;4;15;10;6;2;3;0;17;9;12;10;1;2;5;5;7;4;1;0;5;0;2;0;1;13;10;5;7;14;13;2;3;7;7;3;3;1;5;1;;;
6;28. Vallcarca i els Penitents;744;16;18;4;7;7;13;16;17;18;14;14;0;2;0;5;2;5;15;15;2;5;2;6;5;23;22;77;115;23;18;51;19;11;4;16;1;20;20;9;5;9;0;8;5;1;6;3;0;0;3;2;4;4;1;5;0;0;0;2;9;6;0;2;9;2;2;1;9;0;2;1;1;5;0;;;
6;29. el Coll;299;10;0;1;1;6;4;9;1;9;3;3;0;2;3;2;1;0;4;1;7;0;0;5;3;2;5;8;22;55;4;7;8;4;2;8;2;31;21;4;1;2;0;6;2;0;5;0;1;0;1;1;0;0;0;0;0;0;0;1;4;1;1;3;3;1;0;1;3;1;0;1;0;2;0;;;
6;30. la Salut;568;7;3;6;8;3;10;16;7;15;12;10;0;2;5;1;3;4;6;11;3;0;0;7;0;10;7;25;24;7;90;53;23;18;14;16;3;6;4;1;6;0;0;10;3;7;1;1;4;0;2;0;7;0;0;2;0;6;0;0;4;11;3;4;14;14;4;4;6;3;3;5;4;0;0;;;
6;31. la Vila de Gràcia;3.150;81;45;13;53;39;102;115;85;69;43;53;0;5;11;16;11;21;50;49;23;1;12;29;25;42;111;147;33;26;91;848;169;64;31;55;3;33;15;5;8;9;0;30;17;14;13;4;8;6;10;6;15;9;1;22;2;9;1;14;45;23;22;23;57;14;13;5;58;10;16;14;13;12;3;;;
6;32. el Camp d'en Grassot i Gràcia Nova;1.731;36;22;8;21;36;132;72;24;42;21;26;0;9;5;5;6;12;14;22;14;6;7;13;10;7;26;23;15;7;36;141;338;100;27;41;21;22;4;5;9;2;0;14;18;13;15;1;5;1;20;3;16;1;0;16;0;0;0;3;25;23;2;7;60;16;5;12;18;2;18;6;12;12;0;;;
7;33. el Baix Guinardó;1.280;18;11;8;9;26;99;24;27;13;7;10;0;2;6;6;6;7;13;24;7;1;2;5;5;9;16;15;8;11;24;42;90;233;51;90;13;25;5;2;3;9;0;13;11;14;9;2;5;0;11;8;12;4;0;1;0;3;0;1;15;18;11;17;56;19;5;2;18;5;14;12;6;6;0;;;
7;34. Can Baró;405;2;0;2;2;7;14;5;7;2;5;5;0;2;1;0;0;1;0;2;0;0;1;0;3;0;4;7;1;3;14;18;10;46;104;34;1;34;4;1;0;1;0;1;5;5;7;5;0;1;3;3;1;0;0;1;0;2;0;0;4;3;1;1;6;0;4;0;1;1;4;2;1;0;0;;;
7;35. el Guinardó;1.920;22;10;11;16;22;58;25;21;23;17;23;0;7;1;15;3;14;26;18;2;4;1;10;3;7;24;10;9;5;24;45;32;83;26;532;36;42;14;2;5;7;1;46;70;30;22;4;11;9;7;20;29;9;0;9;1;3;0;4;39;42;77;51;74;16;6;1;17;3;10;14;12;27;1;;;
7;36. la Font d'en Fargues;372;1;5;1;2;4;5;2;3;2;1;5;0;0;0;1;1;4;5;2;0;0;0;1;1;1;7;0;2;3;7;7;1;6;0;16;93;39;5;2;0;0;1;46;37;4;2;1;5;7;2;0;0;0;1;0;0;1;0;1;7;0;2;2;7;2;0;0;1;1;0;2;2;3;0;;;
7;37. el Carmel;1.804;19;7;11;14;8;26;10;4;10;8;8;0;9;2;4;2;7;4;11;3;1;2;5;1;8;8;15;6;30;9;25;8;23;27;35;48;823;84;15;13;2;4;75;44;27;28;3;2;3;11;21;11;14;0;6;0;23;0;4;22;21;20;12;37;10;0;1;14;4;3;12;6;11;0;;;
7;38. la Teixonera;551;11;2;5;5;7;12;3;3;11;1;3;0;5;3;1;0;1;8;4;0;1;3;4;0;1;8;4;22;11;8;10;1;7;2;10;11;97;121;17;15;5;1;19;5;4;5;1;2;3;8;1;2;6;0;7;0;5;1;0;10;3;3;5;6;3;1;0;2;2;1;1;1;0;0;;;
7;39. Sant Genís dels Agudells;256;3;1;2;3;1;4;0;5;1;1;2;0;2;0;0;0;1;0;1;4;0;0;1;5;1;0;5;7;2;1;10;6;2;1;1;0;13;16;62;7;11;0;7;3;2;2;2;1;9;2;1;0;1;8;0;0;0;3;0;2;5;0;2;6;5;0;0;0;0;2;2;7;2;0;;;
7;40. Montbau;184;0;1;0;0;3;4;1;2;4;3;1;0;1;1;0;0;0;1;1;2;0;0;0;0;3;1;0;2;2;1;0;5;1;0;1;2;2;12;4;50;36;0;2;1;3;2;0;0;2;2;0;0;5;1;3;0;4;0;0;3;0;0;0;1;2;1;1;0;0;0;2;1;0;1;;;
7;41. la Vall d'Hebron;233;1;2;0;0;3;1;2;1;7;0;2;0;0;0;1;0;1;2;1;2;0;0;3;1;2;1;2;2;2;0;4;1;1;0;3;10;7;0;9;15;76;0;17;3;6;4;0;7;5;0;1;2;1;0;0;0;1;0;1;4;1;0;0;2;1;0;2;0;5;3;0;0;2;0;;;
7;42. la Clota;29;0;0;0;0;0;1;0;0;0;0;1;0;0;0;0;0;0;0;0;0;0;0;0;0;0;0;0;0;0;0;0;0;0;0;1;0;6;0;0;1;0;8;5;1;1;0;2;0;0;2;0;0;0;0;0;0;0;0;0;0;0;0;0;0;0;0;0;0;0;0;0;0;0;0;;;
7;43. Horta;1.142;22;10;7;5;7;28;11;11;19;8;11;0;4;1;1;3;7;6;3;4;0;5;3;1;4;7;11;11;2;4;17;12;3;5;18;40;79;20;4;8;9;2;379;56;18;36;3;16;14;6;15;30;3;2;1;2;9;2;5;25;18;2;2;20;4;3;2;4;4;13;4;4;4;3;;;
8;44. Vilapicina i la Torre Llobeta;1.159;6;4;6;8;9;31;15;5;13;7;13;0;2;1;7;2;3;5;9;2;3;0;1;1;11;4;8;8;1;6;19;7;11;3;64;26;29;9;1;2;0;1;61;216;87;80;1;10;2;24;19;34;5;0;13;3;9;1;5;41;48;50;11;17;8;2;3;10;4;5;15;1;9;2;;;
8;45. Porta;1.096;17;5;5;14;9;19;13;9;15;9;4;0;2;1;0;1;1;9;4;4;2;0;2;3;2;1;4;0;3;4;25;6;18;2;15;0;16;1;1;6;2;0;20;60;289;58;4;43;14;28;35;76;16;0;12;0;16;3;4;36;33;25;7;12;9;3;3;10;5;5;4;8;3;1;;;
8;46. el Turó de la Peira;1.082;21;14;8;9;10;13;11;14;8;12;16;0;1;2;6;5;5;11;5;1;0;0;3;1;0;5;4;2;2;3;15;4;11;0;22;6;14;18;7;4;1;1;49;91;63;355;7;29;5;9;14;23;6;1;12;0;8;0;8;26;8;7;8;13;12;1;2;9;0;9;3;0;6;3;;;
8;47. Can Peguera;107;1;4;1;0;0;1;1;0;0;0;1;0;0;2;1;3;1;1;0;0;0;0;0;0;1;0;0;4;0;0;1;0;0;1;9;1;2;0;1;0;0;0;1;2;4;6;12;3;3;7;1;6;2;0;2;1;1;0;0;5;3;1;2;0;0;0;1;4;0;0;1;1;1;0;;;
8;48. la Guineueta;478;6;1;2;4;4;15;4;5;3;4;5;0;3;0;3;3;2;1;2;2;0;1;0;0;3;1;5;2;0;1;10;9;7;4;16;8;5;0;1;4;5;0;18;11;29;21;1;102;8;19;21;19;12;3;0;1;0;3;5;12;12;6;6;3;1;0;0;2;3;3;1;1;3;1;;;
8;49. Canyelles;225;1;1;3;0;5;2;0;0;3;2;1;0;5;0;0;0;2;3;1;0;0;0;0;0;1;0;1;3;0;0;3;0;2;1;1;0;2;1;0;3;5;0;12;0;7;1;2;14;45;19;25;16;8;0;2;0;4;1;3;3;1;2;3;2;0;0;0;1;0;1;0;0;1;0;;;
8;50. les Roquetes;1.077;8;7;0;9;10;14;5;1;10;2;5;0;5;3;0;3;2;9;4;3;0;0;2;0;0;3;5;2;1;3;6;5;5;1;9;0;16;6;2;2;5;5;9;4;41;9;5;37;33;383;74;103;31;13;29;1;20;4;4;21;7;4;7;11;7;2;2;8;0;5;5;7;10;3;;;
8;51. Verdun;700;3;3;3;2;10;6;5;1;2;4;5;0;4;0;4;4;1;8;3;1;0;0;2;0;0;2;5;0;0;1;6;3;9;2;1;3;12;2;3;10;5;0;21;11;28;12;5;16;5;72;180;97;21;1;11;0;2;4;5;15;11;1;5;2;0;4;1;8;0;6;7;9;4;1;;;
8;52. la Prosperitat;1.393;12;9;6;6;11;10;20;11;16;3;7;1;2;4;5;1;4;7;8;3;1;0;0;0;1;4;7;4;0;6;10;8;8;3;27;4;12;5;3;2;1;0;16;22;66;30;11;40;14;96;115;434;59;5;34;3;12;0;16;73;10;4;10;21;9;4;1;5;0;8;10;7;5;1;;;
8;53. la Trinitat Nova;548;9;4;6;8;2;3;4;2;0;1;4;0;3;0;1;0;4;4;1;0;0;1;1;0;0;1;4;0;0;2;9;0;3;2;4;2;6;5;4;1;0;0;1;2;16;13;1;2;1;41;26;58;164;0;16;0;30;0;4;20;9;5;5;10;5;0;0;2;1;10;3;1;1;0;;;
8;54. Torre Baró;131;1;0;0;0;1;2;0;1;2;0;3;0;0;0;0;0;0;0;0;0;0;0;0;0;0;0;4;0;0;0;5;0;0;0;0;0;0;6;0;0;0;0;1;0;2;1;2;2;0;10;3;3;0;63;14;3;0;0;0;1;0;0;0;0;0;0;0;0;0;0;0;1;0;0;;;
8;55. Ciutat Meridiana;936;39;3;13;4;8;7;2;2;7;4;15;0;5;3;2;1;5;7;3;2;0;1;1;0;2;0;4;11;1;2;3;3;6;0;4;0;19;2;0;3;2;0;3;6;14;6;10;1;2;30;14;22;7;26;467;9;15;4;8;19;12;3;10;8;12;1;0;8;0;5;5;4;8;1;;;
8;56. Vallbona;59;2;1;2;0;0;0;0;0;1;0;0;0;0;1;0;1;0;3;1;0;0;1;0;0;0;0;0;0;0;0;2;0;0;0;0;1;0;0;0;0;0;0;0;1;0;0;0;0;0;0;2;0;0;0;1;24;0;1;0;2;0;0;0;1;1;3;0;0;0;2;1;0;4;0;;;
9;57. la Trinitat Vella;851;29;10;7;9;10;5;5;2;7;7;26;0;6;1;8;1;2;4;3;0;2;0;0;0;1;3;4;0;1;0;4;6;3;1;12;0;12;1;2;0;4;0;5;0;11;5;0;2;0;19;11;6;12;2;20;5;420;0;3;41;18;4;8;11;7;0;0;10;2;13;0;2;11;5;;;
9;58. Baró de Viver;53;1;2;2;5;0;1;1;0;0;3;0;0;0;0;0;0;0;0;0;0;0;0;0;0;0;0;0;2;0;0;0;0;1;0;0;0;0;0;0;0;0;0;0;0;1;1;0;0;3;1;0;0;0;0;0;0;0;14;4;5;0;0;0;1;2;1;0;1;0;0;0;0;1;0;;;
9;59. el Bon Pastor;837;6;4;6;0;5;8;1;1;1;2;5;0;5;2;7;1;1;10;7;3;0;0;2;0;0;2;2;1;0;3;6;2;6;0;5;4;5;1;0;0;1;0;8;3;9;5;0;1;1;6;3;13;4;0;0;1;15;7;527;62;10;7;5;4;2;0;2;6;1;4;4;6;6;0;;;
9;60. Sant Andreu;2.135;41;15;3;19;25;33;25;18;22;11;23;0;12;8;14;3;12;18;16;7;3;0;3;7;1;6;5;6;4;5;28;14;12;8;25;4;29;7;7;8;3;1;25;59;57;7;7;20;4;27;20;54;22;3;19;5;47;9;55;889;103;19;16;32;32;3;7;15;8;14;13;13;16;4;;;
9;61. la Sagrera;1.244;22;6;3;13;6;22;11;10;24;5;14;0;2;1;6;6;8;7;13;2;2;0;1;1;1;1;4;2;3;8;16;7;17;7;23;2;9;3;1;3;2;2;17;47;31;22;0;5;1;8;9;8;1;0;8;2;9;0;8;115;352;62;59;49;21;11;8;28;7;13;14;15;17;1;;;
9;62. el Congrés i els Indians;629;14;4;2;3;5;21;10;6;4;7;4;0;1;2;2;4;2;8;3;2;2;0;2;0;6;1;3;3;2;3;11;13;10;7;55;2;17;3;0;3;0;0;8;51;23;10;0;1;1;10;4;5;4;0;8;0;3;2;5;21;35;112;35;10;6;1;0;8;0;3;1;3;12;0;;;
9;63. Navas;957;10;1;3;5;26;39;22;5;13;7;17;0;7;4;2;2;5;11;7;6;0;0;1;0;9;10;11;0;0;1;13;9;25;1;33;4;3;3;0;1;1;0;12;13;16;3;0;6;0;14;6;11;3;0;5;0;1;2;7;31;86;30;215;68;41;1;3;15;3;16;8;12;12;0;;;
10;64. el Camp de l'Arpa del Clot;2.089;37;13;19;19;39;167;45;30;30;25;28;2;17;9;10;10;12;32;26;16;3;2;5;3;13;18;14;8;5;17;36;37;42;6;88;8;16;1;4;4;5;0;14;29;19;28;0;7;2;23;6;26;6;0;12;4;18;0;19;38;53;22;70;470;102;13;12;37;14;22;21;41;40;0;;;
10;65. el Clot;1.232;19;9;12;12;19;49;23;9;22;16;20;0;3;5;5;7;9;14;16;8;0;2;6;1;3;6;9;6;0;6;13;15;21;2;26;2;11;6;1;1;1;1;12;10;14;12;3;6;5;8;1;1;2;2;9;1;7;2;13;40;46;12;38;106;262;4;4;37;4;17;38;78;22;0;;;
10;66. el Parc i la Llacuna del Poblenou;740;24;9;11;35;48;35;10;11;13;13;9;0;6;4;8;2;3;7;10;1;2;1;0;0;3;3;6;2;0;5;18;8;2;2;4;1;4;4;0;1;0;0;4;2;12;5;7;1;0;4;1;8;1;1;5;4;1;0;0;16;14;2;5;25;14;102;22;64;13;10;37;17;18;0;;;
10;67. la Vila Olímpica del Poblenou;313;7;2;2;5;8;9;8;3;9;1;4;0;1;4;4;1;1;8;2;5;9;2;1;1;2;8;3;0;0;3;7;3;1;0;1;1;0;1;0;0;1;0;0;3;0;1;0;0;0;0;0;0;0;0;0;0;0;0;0;1;5;0;6;0;2;22;84;27;16;1;17;0;0;0;;;
10;68. el Poblenou;1.519;36;13;17;18;25;23;14;17;16;14;12;0;10;13;6;8;4;22;18;4;0;3;9;5;7;10;6;2;1;4;25;17;7;2;13;9;5;6;2;5;1;0;5;11;9;6;2;5;4;22;0;6;2;1;5;1;2;1;5;22;14;7;10;14;40;40;29;604;47;59;61;38;18;0;;;
10;69. Diagonal Mar i el Front Marítim del Poblenou;440;8;2;1;10;7;4;6;2;5;1;3;0;2;4;1;1;1;8;4;1;3;0;0;0;3;17;10;0;0;1;7;1;2;1;3;1;2;0;1;0;1;0;6;5;2;3;0;0;0;0;0;3;1;1;0;1;0;0;0;10;3;3;1;2;8;2;8;54;121;30;31;8;10;3;;;
10;70. el Besòs i el Maresme;1.560;63;34;16;5;9;21;6;12;11;16;17;0;12;6;10;1;8;26;4;2;0;0;1;3;6;6;15;1;1;3;9;15;4;1;12;0;15;5;1;3;1;0;14;5;9;12;0;4;1;10;4;3;6;2;6;6;19;0;4;13;13;3;7;15;19;5;2;53;31;766;44;35;57;11;;;
10;71. Provençals del Poblenou;664;11;7;4;7;6;6;5;1;11;5;16;0;9;4;2;7;4;7;7;5;1;3;0;0;3;5;7;1;4;2;16;7;5;1;6;1;7;3;0;4;1;0;9;4;6;3;0;1;1;2;3;5;1;0;1;0;3;0;8;10;6;5;9;11;44;6;2;67;11;48;113;31;53;0;;;
10;72. Sant Martí de Provençals;1.055;18;16;9;7;17;34;14;4;12;11;16;0;14;2;2;4;9;12;12;4;0;0;0;1;4;3;5;3;3;3;15;15;5;2;9;2;7;0;2;1;1;0;10;14;10;3;1;1;2;2;2;5;4;0;2;0;0;1;6;18;23;6;11;24;52;1;5;36;15;29;36;324;112;2;;;
